{
  "_id": "4ca095a4458dd",
  "promoted":true, "type":"bg", "hrev2": "1-757a10574b9e6134fff225cd7b0d1fb7",
  "questions": [
    {
       "1": "",
      "2": "",
      "3": "",
      "4": "",
      "5": "",
      "6": "",
      "7": "",
      "8": "",
      "9": "",
      "10": "",
      "11": "",
      "12": "",
      "13": "",
      "14": "",
      "15": "",
      "16": "",
      "17": "",
      "18": "",
      "19": "",
      "20": "",
      "21": "",
      "22": "",
      "23": "",
      "24": "",
      "25": "",
      "26": "",
      "27": "",
      "28": "",
      "29": "",
      "30": "",
      "31": "",
      "32": "",
      "33": "",
      "34": "",
      "35": "",
      "36": "",
      "37": "",
      "question": ""
    }
  ],
  "appname": "Кои анимационен герой си?",
  "description": "Сега е момента да разбереш",
  "quiz": "1",
  "image": "",
  "slug": "quizimage",
  "share": "Сподели във Фейсбук",
  "results": [
    {
      "short": "Алиса в страната на чудесата",
      "full": "Алиса в страната на чудесата:)сериозно ",
      "image": ""
    },
    {
      "short": "Аладин",
      "full": "едно кръгче със стария килим на баба:)",
      "image": ""
    },
    {
      "short": "Мортиша Адамс",
      "full": "Меню :\r\nхлебарка на скара \r\nДобър апетит:)",
      "image": ""
    },
    {
      "short": "Супермен",
      "full": "НЕ се мъчи ,не можеш да вдигнеш хладилника с една ръка.\r\nНо всичко друго ти върви като по мед и масло",
      "image": ""
    },
    {
      "short": "Пепеляшка",
      "full": "Хайде отиваи да търсиш тиквите ,че вече е 11:50 и\r\nНе чакай дълго принца да те измъкне ,а направи нещо по въпроса",
      "image": ""
    },
    {
      "short": "Снежанка",
      "full": "5.6....6...Абе къде е седмото джудже                                                                                 Научи се да се грижиш сам/а за себе си  ",
      "image": ""
    },
    {
      "short": "Батман",
      "full": "Не живей в сянката на миналото ,а в светлото бъдеще",
      "image": ""
    },
    {
      "short": "котаракът с чизми",
      "full": "Не е важно да си силен и голям\r\nВажно е да умееш да разсъждаваш трезво",
      "image": ""
    },
    {
      "short": "Жасмин ",
      "full": "Любов неразделна",
      "image": ""
    },
    {
      "short": "Лиса Симсън",
      "full": "умно момиче си ти ",
      "image": ""
    },
    {
      "short": "Питър Пан",
      "full": "Вечното дете.Вземи да пораснеш най-накрая",
      "image": ""
    },
    {
      "short": "Бъкс Бъни",
      "full": "Умееш да лазиш на хората по нервите.",
      "image": ""
    },
    {
      "short": "Попай моряка",
      "full": "силно момче си май",
      "image": ""
    },
    {
      "short": "червената шапчица",
      "full": "Лошите вълци умират по теб.",
      "image": ""
    },
    {
      "short": "Шрек",
      "full": "Грозен ,но с добра душа.И някой ден щастието ще ти се усмихне ,само не спирай да вярваш",
      "image": ""
    },
    {
      "short": "супер Марио",
      "full": "Е супер ,супер ,колко да е супер?",
      "image": ""
    },
    {
      "short": "Херкулес",
      "full": "И най- силните хора имат слабости ,но никога не прави грешката да ги показваш",
      "image": ""
    },
    {
      "short": "Рапунцел",
      "full": "Оплиташ всички с твоя чар.",
      "image": ""
    },
    {
      "short": "Смърфита",
      "full": "Сладичко, мъничко ",
      "image": ""
    },
    {
      "short": "Скруч",
      "full": "Има ли по – стиснат от теб?Отпусни се ,веднъж се живее",
      "image": ""
    },
    {
      "short": "Хоумър Симпсън",
      "full": "Е по -голям идиот от тебе няма.",
      "image": ""
    },
    {
      "short": "Пинко розовата пантера",
      "full": "Харизматичен ,чарът с който пленяваш са добрите стари клишета ,които винаги дават резултат",
      "image": ""
    },
    {
      "short": "Блум от Уинкс",
      "full": "Смагиите си на ти .Няма значение на кого и как ги прилагаш ,при теб винаги има резултат",
      "image": ""
    },
    {
      "short": "Прасчо",
      "full": "Нали се сещаш онова сладкото прасенце от Мечо Пух.С твоята наивност и чар покоряваш и най-коравосърдечните хора",
      "image": ""
    },
    {
      "short": "Мис Пиги",
      "full": "В красотата ненадмината си ти .",
      "image": ""
    },
    {
      "short": "Магарето Йори",
      "full": "Голям си песимист ,усмихни се бе.",
      "image": ""
    },
    {
      "short": "Малката русалка",
      "full": "Готов/а си на всичко за любовта",
      "image": ""
    },
    {
      "short": "Мечо Пух ",
      "full": "Колкото повече ,толкова повече",
      "image": ""
    },
    {
      "short": "Жената котка",
      "full": "Фатална  жена ,не приемаш откази",
      "image": ""
    },
    {
      "short": "Жената Чудо",
      "full": "То името говори само за себе си",
      "image": ""
    },
    {
      "short": "Красавицата Бела",
      "full": "За теб е важно не мъжът да е красив, а да е мил",
      "image": ""
    },
    {
      "short": "Ледената кралица",
      "full": "Има ли нещо по- студено от теб",
      "image": ""
    },
    {
      "short": "Гарфилд",
      "full": "По-голяма лакомия от теб няма От всичко най-обичаш да похапваш",
      "image": ""
    },
    {
      "short": "Духът от Аладин",
      "full": "ти умееш всичко,само с едно щракване на пръсти и получаваш това което искаш",
      "image": ""
    },
    {
      "short": "Медуза",
      "full": "С един поглед вкаменяваш всички мъже",
      "image": ""
    },
    {
      "short": "Грозното пате",
      "full": "Не се отчайваи ти си чудесен човек ,просто не се е намерило кой да го оцени.Има време",
      "image": ""
    },
    {
      "short": "",
      "full": "",
      "image": ""
    }
  ]
}