{
  "_id": "4cfaa0281b2c8",
  "promoted":true, "type":"bg", "hrev2": "1-f87d514d8d438b8893b86fbd70be5bd5",
  "questions": [
 
    {
      "1": "Rqdko.",
      "2": "Ne to4no.",
      "3": "Ne mn 4esto.",
      "4": "Kogato se setq.",
      "5": "Ponqkoga no kogato mislq to e za dalgo.",
      "6": "Postoqnno toi/tq mi e v yma.",
      "7": "Ne",
      "question": "Misli6 li za nego/neq?"
    },
    {
      "1": "Normalno.",
      "2": "Malko obezpokoqva6o.",
      "3": "Pretisnqvam se.",
      "4": "Prosto go gledam.",
      "5": "Neznam kakvo da napravq/kaja.",
      "6": "Prosto dymite iz4ezvat ot yma mi i az se ysmixvam bez pri4ina.",
      "7": "Savsem obiknovenno.",
      "question": "Kak se 4yvsta6 do nego/neq?"
    },
    {
      "1": "Da go/q odarq.",
      "2": "Da ne go/q gledam v o4ite.",
      "3": "Da go/q kosna(da kajem po liceto).",
      "4": "Da go/q pregarna(priqtelski).",
      "5": "Da go/q celyna.",
      "6": "Da my/i kaja 4e go xaresvam.",
      "7": "Ni6o.",
      "question": "Kakvo iska6 da napravi6,no nqma6 smelost."
    },
    {
      "1": "Prosto nqkolko flirta.",
      "2": "Nz ... no ne e ne6o koeto ti e neobxodimo za da jivee6.",
      "3": "Lubovta e xybava,no ne e zadaljitelna.",
      "4": "Moje bi e prekrasna no ne q poznavam.",
      "5": "Ne6o mn krasiwo.",
      "6": "Lubovta e sladka,tajna no i mn krasiva.",
      "7": "Ni6o osobedno.",
      "question": "Lubovta za teb...?"
    },
    {
      "1": "Ne znam i ne mislq da nay4avam.",
      "2": "Nz.Nikoga ne sam se vlubval/a.",
      "3": "Me4taq.",
      "4": "Sas sigornost ne spiram da mislq za nego/neq.",
      "5": "Letq v oblacite.",
      "6": "Pi6a si srix4eta.",
      "7": "0t kade pak da znam.",
      "question": "Kakvo pravi6 kogato si vluben?"
    },
    {
      "1": "Ko da napraq.Da si 4ypi glavata.",
      "2": "Gadno mi e ama nemoga da napravq ni6o.",
      "3": "Cql den 6e si mislq za tova i 4ak az 6e se razboleq.",
      "4": "Bix se opitala da my pomogna.",
      "5": "6e se prirovq i 6e se opitvam bez da spiram da my/i pomogna dori da my/i e gadno 4e se grija taka za nego/neq.",
      "6": "Sas sigornost nqma da mi e priqtno,no ne bix predpo4ela da se mesq.",
      "7": "K0 me interesyva.",
      "question": "Ako toi/tq e tajen/bolen/ili ne6o podomno ti...?"
    },
    {
      "1": "Em k0 da go napraq.",
      "2": "Kato poiska 6e govori.",
      "3": "6e nastoqvam...no kato ne6e i az nqma da my govorq.",
      "4": "6e se opitam vednaj no nqma da mu/i dosajdam.",
      "5": "6e nastoqvam dokato ostana bez dax.",
      "6": "6e napravq taka 4e da my pomogna no bez da stavam dramati4em/a.",
      "7": "Abe da se e*e be.",
      "question": "Ako ne my/i se govori s nikoi ti...?"
    },
    {
      "1": "Prosto poredniq/ta.",
      "2": "Mnogo naiven/a.",
      "3": "6e se opitam da go/q opraq nqkak.",
      "4": "Straxoten//a e.",
      "5": "Sladyr/ana.",
      "6": "Malko zadrasten/a,no takav/a si mi dopada.",
      "7": "Palen/a glupak/4ka.",
      "question": "Kakvo misli6 za nego/neq?"
    },
    {
      "1": "Az vluben/a?Tova ne moje da bade.",
      "2": "Na dali lubovta e to4noto opredeleniq za men.",
      "3": "Malko ne mi se vqrva da sam ramntik/4ka.",
      "4": "Srannoto mom4e/i4e.",
      "5": "Az sam nai-golqmiq/ata romantik/4ka.",
      "6": "Romantikata ot 4asti e za men ot 4asti predpo4itam realnoto.",
      "7": "Palen/na zagybenqk/4ka.",
      "question": "Kak se oprili4ava6 kato vluben/a?"
    },
    {
      "1": "Na dali.Az xaresvam i dryg/a.",
      "2": "Ni6o pove4e ot priqteli.",
      "3": "Bez nikakvi nedostataci.",
      "4": "Napalno ednakvi/razli4ni.",
      "5": "Nqmame ravni.",
      "6": "Protivopolojnostite se privli4at.No imame i ne6o ob6o.",
      "7": "V nikakav sly4ei.",
      "question": "Ti i toi...?"
    }
  ],
  "appname": "Vluben li si ?",
  "description": "Nai-ve4e 6e razbere6 dali si vluben ili prostotova e nadjivelica.",
  "quiz": "1",
  "slug": "quizimage",
  "share": "Сподели във Фейсбук",
  "image": "",
  "results": [
    {
      "short": "6e go preodolee6",
      "full": "Ne se izma4vai.6e ti mine mn barzo spoko.6e sre6ne6 istinikiq no ne v tozi moment.",
      "image": ""
    },
    {
      "short": "Ti si palna zagdka.",
      "full": "Dali si vluben ili ne si e palna zagadkaTvoite 4yvstva moje i da sa istinski no moje i da sa prosto vremenni.Po4akai i 6e razbere6...",
      "image": ""
    },
    {
      "short": "Moje bi DA.",
      "full": "Ti si stranna li4nost.4estoo se vlubva6 i vinagi e lubov.Ti si vlubena no ne se otkazvai ako se provali6 za6oto 6e sre6ne6 o6e nqkoi.",
      "image": ""
    },
    {
      "short": "Naistina vluben/a.",
      "full": "Ti se vlubva6 rqdko no e istinski.Ne se otkazvai ako ne se poly4i vinagi 6e ima i dr.No v momenta si mn vlubena i ne se sramyvai da si go priaznae6 PRED NEGO.",
      "image": ""
    },
    {
      "short": "Lubov.",
      "full": "Tova e istinska lubov.I ti i toi/tq ste naistina vlubeni edin v dryg no i dvamata nemojete da si go priznaete.Opitaite a ako ne ti vzemi parvata kra4ka ;)",
      "image": ""
    },
    {
      "short": "This is love.",
      "full": "Tova e lubov.Tova koeto ispitva6 e istinko a i toi/tq ispitva sa6oto.Vie ste edin za dryg.",
      "image": ""
    },
    {
      "short": "Where is love.",
      "full": "Ne moga da razbera pri teb kade e lubavta.Opitai se da dava6 ne6o pove4e ot sebe si i poiskai da poly4ava6.",
      "image": ""
    }
  ]
}