{
  "_id": "4d0ce705baeea",
  "promoted":true, "type":"bg", "hrev2": "1-5a50c1fb8012fc4170e83d11d2ad395b",
  "questions": [
    {
      "1": "",
      "2": "",
      "3": "",
      "4": "",
      "5": "",
      "6": "",
      "7": "",
      "question": ""
    }, 
    {
      "1": "Да, много!",
      "2": "Май да!",
      "3": "Да!",
      "4": "Определено!",
      "5": "Изключително!",
      "6": "Не, абсурд!",
      "7": "Страхотен съм!",
      "question": "Страстен ли си?"
    },
    {
      "1": "Да стоя с гаджето си и да се целуваме! :Р",
      "2": "Да чета! :х",
      "3": "Да танцувам!",
      "4": "Да скачам насам, натам",
      "5": "Да де любувам на прекрасния ден!",
      "6": "Незнам!",
      "7": "Да се кълча!",
      "question": "Какво обичаш да правиш?"
    },
    {
      "1": "Червен!",
      "2": "Бял!",
      "3": "Зелен!",
      "4": "Син!",
      "5": "Розов!",
      "6": "Незнам!",
      "7": "Лилав!",
      "question": "Кой е любимият ти цвят?"
    },
    {
      "1": "Lady Gaga!",
      "2": "дженифър Лопез, Рики Мартин",
      "3": "Pink!",
      "4": "Сантра и Кристо",
      "5": "Бах, Моцарт!",
      "6": "Славка Калчева!",
      "7": "Незнам!",
      "question": "Кой певец си избираш?"
    }
  ],
  "appname": "Кой танц ти прилича най- много",
  "description": "Забавлявай се!",
  "quiz": "1",
  "slug": "quizimage",
  "share": "Сподели във Фейсбук",
  "image": "",
  "results": [
    {
      "short": "За те е страстното Танго!",
      "full": "Ти си човек който обожава страстта и е създаден да раздава страст по света с великолепните движения на Тангото!",
      "image": ""
    },
    {
      "short": "За теб е Салсата!",
      "full": "Ти си нетърпелив човек, който обожава бързината на Салсата!",
      "image": ""
    },
    {
      "short": "За теб са Модерните Танци!",
      "full": "Ти харесваш поп музика и обичаш да разпускаш с модерните танци! ",
      "image": ""
    },
    {
      "short": "Бейк!",
      "full": "За теб не съществува гравитация!",
      "image": ""
    },
    {
      "short": "Класичеаки Балет!",
      "full": "Ти си най-нежният и любвеобвилен човек на земята!",
      "image": ""
    },
    {
      "short": "Български Народни танци!",
      "full": "Ти си подскоклив и игрив човек!\r\n",
      "image": ""
    },
    {
      "short": "Бели денс!",
      "full": "Ти си с красиво тяло което обичаш да въртиш насам, натам!",
      "image": ""
    }
  ]
}