{
  "_id": "4d24bb13d5b47",
  "promoted":true, "type":"bg", "hrev2": "1-e914d5e8d033002968578340819a9800",
  "questions": [
    {
      "1": "",
      "2": "",
      "3": "",
      "4": "",
      "question": ""
    },
    {
      "1": "",
      "2": "",
      "3": "",
      "4": "",
      "question": "ПОЗНАВАТЕ ЛИ СИ ДОБРЕ ВАШИЯТ РАБОТОДАТЕЛ"
    },
    {
      "1": "",
      "2": "",
      "3": "",
      "4": "",
      "question": "КОГАТО ГО ВИДИТЕ КАКВО МУ КАЗВАТЕ НА НЕГО"
    },
    {
      "1": "",
      "2": "",
      "3": "",
      "4": "",
      "question": "КОЛКО ВРЕМЕ ВИ ТРЯБВА ДА ГО ОПОЗНАЕТЕ"
    },
    {
      "1": "",
      "2": "",
      "3": "",
      "4": "",
      "question": "ТОИ КОГАТО ВИ ИЗВИКА ИВИ КАЖЕ ЧЕ ТРЯБВА ДА ВИ ПУСНА ОТПУСКА КАКВО ЩЕ МУ ОТГОВОРИТЕ НА НЕГО"
    },
    {
      "1": "",
      "2": "",
      "3": "",
      "4": "",
      "question": "ТОЙ ВЯРВА ЛИ ВАС ЛИЧНО"
    },
    {
      "1": "",
      "2": "",
      "3": "",
      "4": "",
      "question": "КАКВО ЩЕ НАПРАВИТЕ АКО ВИ КАЖЕ ЧЕ ТРЯБВА ДА ВИ ОСВОБОДЯ"
    },
    {
      "1": "",
      "2": "",
      "3": "",
      "4": "",
      "question": "И КАКЪВ ЧОВЕК СТЕ НА ВАШИЯТ РАБОТОДАТЕЛ"
    }
  ],
  "appname": "ПОЗНАВАТЕЛИ ДОБРЕ ВАШИЯТ ВИ РАБОТОДАТЕЛ",
  "description": "",
  "quiz": "1",
  "slug": "quizimage",
  "share": "Сподели във Фейсбук",
  "image": "",
  "results": [
    {
      "short": "ДА",
      "full": "",
      "image": ""
    },
    {
      "short": "НЕ",
      "full": "",
      "image": ""
    },
    {
      "short": "МОЖЕ БИ",
      "full": "",
      "image": ""
    },
    {
      "short": "НЕ МОГА ДА ПРЕЦЕНЯ",
      "full": "",
      "image": ""
    }
  ]
}