{
  "_id": "4d2614e447801",
  "promoted":true, "type":"bg", "hrev2": "1-cc6d215fc66612a2c6e730b823ad7661",
  "questions": [
    {
      "1": "",
      "2": "",
      "3": "",
      "question": ""
    },
    {
      "1": "Понякога ",
      "2": "Винаги ",
      "3": "Рядко",
      "question": "Защитавал ли ви е пред останалите?"
    },
    {
      "1": "С името ви ",
      "2": "С малкото ви име ",
      "3": "С умалително име",
      "question": "Към вас се обръща:"
    },
    {
      "1": "Много рядко ",
      "2": "Никога ",
      "3": "Да, но това не ми пречи",
      "question": "Критикува ли ви публично?"
    },
    {
      "1": "ДА ",
      "2": "Понякога ",
      "3": "Не",
      "question": "Помага ли ви в някои досадни задължения?"
    },
    {
      "1": "Зависи ",
      "2": "Не ",
      "3": "да",
      "question": "Съобразява ли се с вас?"
    },
    {
      "1": "Никога ",
      "2": "Рядко ",
      "3": "ДА",
      "question": "Проверява ли ви GSM-а? "
    }
  ],
  "appname": "Каква е любовната ви връзка ?",
  "description": "",
  "quiz": "1",
  "slug": "quizimage",
  "share": "Сподели във Фейсбук",
  "image": "",
  "results": [
    {
      "short": "",
      "full": "Хармонична връзка, в която все пак се проявят моменти на ревност, за да заздравят връзката ви.\r\n",
      "image": ""
    },
    {
      "short": "",
      "full": "Хармонията при вас не е на лице, по скоро всеки гледа себе си, а по малко другия, но има различни типове връзки ако този тип ви харесва, това значи, че сте щастливи един с друг.\r\n",
      "image": ""
    },
    {
      "short": "",
      "full": "Хармонична връзка, в която все пак се проявят моменти на ревност, за да заздравят връзката ви.\r\n",
      "image": ""
    }
  ]
}