{
  "_id": "4d261d1df3f94",
  "promoted":true, "type":"bg", "hrev2": "1-6eaf61fbfc50d4f0e5c2e17c844b4351",
  "questions": [
    {
      "1": "",
      "2": "",
      "3": "",
      "question": ""
    },
    {
      "1": "Слабо момиче",
      "2": " Женствено момиче  ",
      "3": " Дебело момиче ",
      "question": "В огледалото виждаш? "
    },
    {
      "1": "Сресвам се сутрин.",
      "2": "около 30 мин на ден ",
      "3": "повече от 30 мин на ден",
      "question": "Колко минути на ден отделяш за косата си? "
    },
    {
      "1": "Средно около 30 мин.  ",
      "2": "Повече от 30 мин.  ",
      "3": "Еми не се гримирам. ",
      "question": "Колко минути на ден отделяте за грим и козметика? "
    },
    {
      "1": "около 50 кг ",
      "2": "над 50 кг ,но под 65 кг ",
      "3": "над 70кг",
      "question": "Килограмите ти са:"
    },
    {
      "1": "над 170см ",
      "2": "м/у 160-169 ",
      "3": "под 160",
      "question": "Висока си:"
    },
    {
      "1": "Обръщат се след мене ",
      "2": "НЕ ме забелязват ",
      "3": "усмихват ми се чаровно",
      "question": "Момчетата:"
    }
  ],
  "appname": "Секси ли си ?",
  "description": "",
  "quiz": "1",
  "image": "",
  "slug": "quizimage",
  "share": "Сподели във Фейсбук",
  "results": [
    {
      "short": "",
      "full": "Определено си много секси и момчетата дават всичко, за да бъдат само един миг с тебе.",
      "image": ""
    },
    {
      "short": "",
      "full": "Точно секси не, но определено сте много чаровно момиче. Което и момче да е с вас той би бил най-големия късметлия.",
      "image": ""
    },
    {
      "short": "",
      "full": "Трябва да поработите над външния си вид, за да придобиете сексапил! ",
      "image": ""
    }
  ]
}