{
  "_id": "4d2d9195e8643",
  "promoted":true, "type":"bg", "hrev2": "1-101debd69d724976ed94231aa76d09af",
  "questions": [
    {
      "1": "",
      "2": "",
      "3": "",
      "question": ""
    },
    {
      "1": "му кажете че това не е хубаво и да се откаже",
      "2": "да го направите",
      "3": "зарязвате го",
      "question": "Ако приятел ви помоли да направите нещо,което вие не бихте направили щяхте да:"
    },
    {
      "1": "ако  се налага ще се кача на автобуса но ако не бързам или нещо такова ще изчакам",
      "2": "ще изчакам  и ще се обадя на него",
      "3": "качвам се и точка като дойде има още автобуси се ще се качи на следващия",
      "question": "Вие сте навреме на спирката и минава автобус,но приятелят ви не е там "
    },
    {
      "1": "вие се съгласявате ако нямате какво да  правите но,ако имате работа казвате и го правите друг път",
      "2": "ами що за въпрос РАЗБИРА СЕ  че ще отрека ако имам работа",
      "3": "казвам му не и затварям",
      "question": "Кани ви приятел на кафе"
    },
    {
      "1": "втурвате се да му помогнете",
      "2": "отивате когато можете",
      "3": "ще резбера ко става по-късно",
      "question": "Приятел се наранява вие"
    }
  ],
  "appname": "Добър приятел ли сте?",
  "description": "Ще разберете какъв приятел сте!",
  "quiz": "1",
  "image": "",
  "slug": "quizimage",
  "share": "Сподели във Фейсбук",
  "results": [
    {
      "short": "Най-добър приятел",
      "full": "Вие сте най-добрият приятел на света!",
      "image": ""
    },
    {
      "short": "Много добър приятел",
      "full": "Е,не сте перфектен/на но не сте за изхвърляне ако помислите над някои неща може и да успеете за най-добър приятел",
      "image": ""
    },
    {
      "short": "Не ставате за най-добър приятел",
      "full": "Не е за вас да сте добър приятел",
      "image": ""
    }
  ]
}