{
  "_id": "4d34a8b3beac9",
  "promoted":true, "type":"bg", "hrev2": "1-71ec1973f9a9539dfee6bd695ed90b54",
  "questions": [
    {
      "1": "",
      "2": "",
      "3": "",
      "question": ""
    },
    {
      "1": " травматизирате се ",
      "2": " преодолявате раздялата с повече ангажименти ",
      "3": " създавате си нови връзки ",
      "question": "Ваш приятел заминава за чужбина:"
    },
    {
      "1": " не можете да свикнете ",
      "2": " интересно ви е как живеят те ",
      "3": " привиквате ги към вашите навици ",
      "question": "Налага ви се да живеете при други хора: "
    },
    {
      "1": " това ви плаши ",
      "2": " може и да е за добро ",
      "3": " все ви е едно ",
      "question": "Очакват се размествания в службата: "
    },
    {
      "1": " бавно и не напълно ",
      "2": " добре, но след време ",
      "3": " бързо, умеете да забравяте ",
      "question": "След стрес се възстановявате: "
    },
    {
      "1": " по правило отхвърляте ",
      "2": " премисляте и тогава приемате ",
      "3": " не ви липсват ",
      "question": "Нещата свързани с риск: "
    },
    {
      "1": " хората да не разберат ",
      "2": " да не се травматизирате ",
      "3": " да го решите за чужда сметка ",
      "question": "Най-важното, когато имате проблем е: "
    }
  ],
  "appname": "УСТОЙЧИВИ ЛИ СТЕ ПСИХИЧЕСКИ?   ",
  "description": "",
  "quiz": "1",
  "slug": "quizimage",
  "share": "Сподели във Фейсбук",
  "image": "",
  "results": [
    {
      "short": "",
      "full": "Вие изпитвате повишена тревожност. Трудно приемате промените. Предпочитате сигурните и по-спокойни неща.",
      "image": ""
    },
    {
      "short": "",
      "full": "Вие сте достатъчно устойчив човек. Решавате нещата чрез анализ и вземане на вярно решение.",
      "image": ""
    },
    {
      "short": "",
      "full": "Твърде устойчиви сте и рядко нещо ви разстройва. Но вашата ниска тревожност не е ли плод на егоизъм.",
      "image": ""
    }
  ]
}