{
  "_id": "4d374ea37dff5",
  "promoted":true, "type":"bg", "hrev2": "1-d6c91e1f46f384ec453b582800b6c749",
  "questions": [
    {
      "1": "",
      "2": "",
      "3": "",
      "question": ""
    },
    {
      "1": "чудите се дали да не се откажете от играта",
      "2": "размишлявате как да се представите по-добре следващия път",
      "3": "ядосвате се за грешките, които сте допуснали",
      "question": "Как реагирате, ако губите катастрофално на карти, шах, тенис и т.н.? "
    },
    {
      "1": "се възхищавате на колата и им честитите",
      "2": "мечтаете някой ден и вие да притежавате такъв автомобил",
      "3": "решавате да си купите нова кола, колкото е възможно по-скоро",
      "question": "Съседите ви току-що са си купили нова луксозна кола. Вие:"
    },
    {
      "1": "сменяте темата",
      "2": "формулирате отново позицията си",
      "3": "продължавате да спорите, за да докажете, че сте прав",
      "question": "Когато някой не е съгласен с вас, вие:"
    },
    {
      "1": "бързо забравяте",
      "2": "дълго размишлявате върху това",
      "3": "решавате да си отмъстите",
      "question": "Някой се шегува за ваша сметка. Как постъпвате?"
    },
    {
      "1": "смятате, че можете да имате доверие на партньора си",
      "2": "казвате на партньора си да не обръща внимание",
      "3": "казвате на досадника да се махне",
      "question": "Ако някой се опита да флиртува с вашия партньор, вие:"
    },
    {
      "1": "чакате търпеливо",
      "2": "недоволствате на висок глас, надявайки се, че по този начин ще ускорите движението",
      "3": "тръгвате си или излизате от опашката, за да потърсите някоя по-малка",
      "question": "Застанали сте на дълга, бавнопридвижваща се опашка. Какво правите?"
    }
  ],
  "appname": "Агресивни ли сте?",
  "description": "",
  "quiz": "1",
  "slug": "quizimage",
  "share": "Сподели във Фейсбук",
  "image": "",
  "results": [
    {
      "short": "",
      "full": "Явно, не сте достатъчно борбен. Сигурно често губите в състезанието с другите, по-нахални от вас хора.\r\n",
      "image": ""
    },
    {
      "short": "",
      "full": "Вие попадате в категорията на средноагресивните хора. Умеете да поддържате приятелствата си, като същевременно се придвижвате нагоре в кариерата и в общественото си положение.\r\n",
      "image": ""
    },
    {
      "short": "",
      "full": "Вие сте твърде агресивен. Преди да реагирате на предизвикателствата, помислете си дали си струва да победите с цената на изгубено приятелство или на допълнителни отрицателни емоции. Опитвайте се да постигнете разбирателство, без да влизате в конфликт.\r\n",
      "image": ""
    }
  ]
}