{
  "_id": "4d3acb87ef9d1",
  "promoted":true, "type":"bg", "hrev2": "1-f3acd8a1e0f8f39684ee0e8dbcd81219",
  "questions": [
    {
      "1": "",
      "2": "",
      "3": "",
      "question": ""
    },
    {
      "1": "на първия защото той се грижи за плода",
      "2": "на втория защото плода пада при него",
      "3": "ще си я изям за да не се скарат",
      "question": "ако имаш една ябълка и двама човека се карат първият човек казва че ябълката е негова защото расте при него  а другият казва че е негова защото плода пада при него  на кого ще я дадеш"
    },
    {
      "1": "не съм го завършила още",
      "2": "с шестица",
      "3": "с петтица",
      "question": "с колко завърши 4ти клас"
    },
    {
      "1": "на връх мусала",
      "2": "във варна",
      "3": "на рила",
      "question": "къде искаш да отидеш"
    }
  ],
  "appname": "с каква оценка ще завършиш училище",
  "description": "",
  "quiz": "1",
  "slug": "quizimage",
  "share": "Сподели във Фейсбук",
  "image": "",
  "results": [
    {
      "short": "",
      "full": "",
      "image": ""
    },
    {
      "short": "ихаааааа  ще завършиш с пълна шестица",
      "full": "",
      "image": ""
    },
    {
      "short": "",
      "full": "",
      "image": ""
    }
  ]
}