{
  "_id": "4d3c4a7f66e3b",
  "promoted":true, "type":"bg", "hrev2": "1-2ad6cb6ed3f7dea497616d7d076782f8",
  "questions": [
    {
      "1": "",
      "2": "",
      "3": "",
      "4": "",
      "question": ""
    },
    {
      "1": "12-17",
      "2": "17-25",
      "3": "25-37",
      "4": "Какво те бърка",
      "question": "На колко години сте?"
    },
    {
      "1": "Да излизам с приятели",
      "2": "Да ходя на театър",
      "3": "Да спя",
      "4": "Да спортувам",
      "question": "Какво обичаш да правиш през свободното си време?"
    },
    {
      "1": "Ще се наям",
      "2": "Ще пея",
      "3": "Ще попитам някого какво да направя",
      "4": "Ще танцувам",
      "question": "Какво ще направите като отидете на място на което сте за първи път?"
    },
    {
      "1": "Сладолед",
      "2": "Скариди",
      "3": "Супа",
      "4": "Ябълка",
      "question": "Кое ви е любимото ястие?"
    },
    {
      "1": "Кола",
      "2": "Вино",
      "3": "Вода",
      "4": "Мляко",
      "question": "Какво обичате да пиете?"
    }
  ],
  "appname": "Коя е твоята дреха?",
  "description": "Мода,стил и поведение ;)",
  "quiz": "1",
  "slug": "quizimage",
  "share": "Сподели във Фейсбук",
  "image": "",
  "results": [
    {
      "short": "Тениска",
      "full": "Вие сте свободен човек,обичате живота.Хора като вас са душата на компанията.Във вас се крият много фантастични идеи,не се бойте да ги използвате.",
      "image": ""
    },
    {
      "short": "Рокля",
      "full": "Вие сте елегантна душа,имате много идеи за живота и никога не прекалявате.Такива като вас са преуспели в кариерата,но забравят за семейството и личните си интереси.",
      "image": ""
    },
    {
      "short": "Панталони",
      "full": "Вие сте скучен човек.Отпуснете се малко,позабавлявайте се с приятели.Много сте напрегнат и мислите само за околните,но не и за себе си.",
      "image": ""
    },
    {
      "short": "Анцуг",
      "full": "Вие сте роден спортист.Обичате да сте натоварени със всякакви задачи,това ви доствя удоволствие.Упорита сте.Много хора разчитат на вас.",
      "image": ""
    }
  ]
}