{
  "_id": "4d3f2304a3274",
  "promoted":true, "type":"bg", "hrev2": "1-1bb97afe9fb345a5f333a1046b582c09",
  "questions": [
    {
      "1": "",
      "2": "",
      "3": "",
      "question": ""
    },
    {
      "1": "никога",
      "2": "понякога",
      "3": "често",
      "question": "Обхващат ли ви вълни от емоции?"
    },
    {
      "1": "никога",
      "2": "понякога",
      "3": "често",
      "question": "Търсите ли одобрение за постъпките си сред всички свои познати?"
    },
    {
      "1": "никога",
      "2": "понякога",
      "3": "често",
      "question": "Боите ли се да оставате самотни?"
    },
    {
      "1": "никога",
      "2": "понякога",
      "3": "често",
      "question": "Не смятате ли, че усещането за подтиснатост е признак за слабост?"
    },
    {
      "1": "никога",
      "2": "понякога",
      "3": "често",
      "question": "Не възниква ли у вас чувство за изолираност от околния свят?"
    },
    {
      "1": "никога ",
      "2": "понякога",
      "3": "често",
      "question": "Изпадате ли в депресия?"
    },
    {
      "1": "никога",
      "2": "понякога",
      "3": "често",
      "question": "Избягвате ли контактите с хората?"
    }
  ],
  "appname": "Вие и емоциите",
  "description": "",
  "quiz": "1",
  "slug": "quizimage",
  "share": "Сподели във Фейсбук",
  "image": "",
  "results": [
    {
      "short": "",
      "full": "Вие сте рационален човек, но може би не ви достига малко оригиналност и блясък.",
      "image": ""
    },
    {
      "short": "",
      "full": "Страдате от съмнения и от неудовлетвореност от живота. Примирете се с това, че на света няма съвършени хора и се старайте да се показвате от към добрата си страна.",
      "image": ""
    },
    {
      "short": "",
      "full": "Приемате всичко твърде близо до сърцето си. Дали не е дошъл моментът да преразгледате напълно вашия начин на живот?\r\n",
      "image": ""
    }
  ]
}