{
  "_id": "4d41668c8a8ca",
  "promoted":true, "type":"bg", "hrev2": "5-8e2b13b4ef534b3bbdbe3ac562d1027f",
  "questions": [
    {
      "1": "",
      "2": "",
      "3": "",
      "4": "",
      "question": ""
    },
    {
      "1": "кво сипеш",
      "2": "вода",
      "3": "сикер",
      "question": "Какво пиеш?"
    },
    {
      "1": "те",
      "2": "имам проблеми, моля не ме занимавайте",
      "3": "казах ви , 4е имам проблеми и вие пак..а махайте се, досадни хора, бреййййй",
      "question": " Кво стаа?"
    },
    {
      "1": "мчи къ мислиш ти",
      "2": "аз ям само в изискан ристуран",
      "3": "аз ям само сухоежбини",
      "question": "Можете ли да правите баница?"
    }
  ],
  "appname": "Тест- Вие мени уважаате ли мъ?",
  "description": "това също така е тест за бременност, ако отговорите са ви:\r\n1 отговор- да- много ме уважавате и зна4и сте бременен,\r\n2. не- пу, къ не ве е срам да не мъ уважаате-не сте бременен за наказанеееееее\r\n3.по4ти- не мога да разбера баш.\r\nа вий разбрахте ли?:))))))))))))",
  "quiz": "1",
  "slug": "quizimage",
  "share": "Сподели във Фейсбук",
  "image": "",
  "results": [
    {
      "short": "да",
      "full": "1 отговор- да- много ме уважавате и зна4и сте бременен",
      "image": ""
    },
    {
      "short": "не",
      "full": "не- пу, къ не ве е срам да не мъ уважаате-не сте бременен за наказанеееееее",
      "image": ""
    },
    {
      "short": "по4ти",
      "full": "не мога да разбера баш.",
      "image": ""
    }
  ]
}