{
  "_id": "4d4d3f2431f46",
  "promoted":true, "type":"bg", "hrev2": "1-379fc77e0a25d287f08593b752ca828e",
  "questions": [
    {
      "1": "",
      "2": "",
      "3": "",
      "question": ""
    },
    {
      "1": "Да, много!",
      "2": "Зависи",
      "3": "Определено не!",
      "question": "Кефи ли те да учиш?"
    },
    {
      "1": "Определено!",
      "2": "Само някои",
      "3": "Изобщо!",
      "question": "Обичаш ли учителите?"
    },
    {
      "1": "Не!",
      "2": "Само някои",
      "3": "Да!",
      "question": "Обичаш ли свободните часове?"
    },
    {
      "1": "Естествено!",
      "2": "Не за всички",
      "3": "Не ми зависи от това живота!",
      "question": "Пука ли ти за оценките?"
    }
  ],
  "appname": "В какви отношения си с даскало?",
  "description": "Да видим дали харесваш училище :)",
  "quiz": "1",
  "slug": "quizimage",
  "share": "Сподели във Фейсбук",
  "image": "",
  "results": [
    {
      "short": "УАУ! Ти наистина обичаш даскало!",
      "full": "",
      "image": ""
    },
    {
      "short": "На различни мнения си, а?",
      "full": "",
      "image": ""
    },
    {
      "short": "Не си заклет фен на даскало, а?",
      "full": "",
      "image": ""
    }
  ]
}