{
  "_id": "4d4dade96529d",
  "promoted":true, "type":"bg", "hrev2": "1-8e85af8d1eab2ab0c11f7a6addf1c2c7",
  "questions": [
    {
      "1": "",
      "2": "",
      "3": "",
      "question": ""
    },
    {
      "1": "според тоалета",
      "2": "нямате претенции",
      "3": "не обичате червило",
      "question": "Как избирате червилото си?"
    },
    {
      "1": "черно и бяло",
      "2": "червено, кафяво и синьо",
      "3": "зелено, синьо и жълто",
      "question": "Кое от съчетанията на цветовете предпочитате?"
    },
    {
      "1": "с много силен и натрапчив аромат",
      "2": "с аромат на пролетни цветове",
      "3": "силата на аромата да отговаря на яркостта на дрехите",
      "question": "Какъв парфюм предпочитате?"
    },
    {
      "1": "всякаква, стига да е модерна",
      "2": "нямате предпочитание",
      "3": "свободно пусната коса",
      "question": "Каква прическа предпочитате?"
    },
    {
      "1": "книга",
      "2": "нещо не особено красиво, но полезно",
      "3": "красива, но неизползваема вещ",
      "question": "Какъв подарък бихте подарили на празник?"
    }
  ],
  "appname": "Вашият вкус ",
  "description": "",
  "quiz": "1",
  "slug": "quizimage",
  "share": "Сподели във Фейсбук",
  "image": "",
  "results": [
    {
      "short": "",
      "full": "Препоръчваме ви да обърнете повече внимание на облеклото си и въобще; замисляйте се малко кое ще е най - подходящо да облечете, преди да излезете на улицата. Опитайте се да определите кое най - много ви отива и да го съчетаете подходящо с модната линия в момента. Няма нищо лошо и в това да поискате съвет от приятел/ка, които имат по - добър усет в тези неща от вас.",
      "image": ""
    },
    {
      "short": "",
      "full": "Доста сте суетни. Не обичате небрежните към външността си хора. Имате добър вкус и сте предпочитан съветник за своите приятели, когато правят избор за облеклото си.",
      "image": ""
    },
    {
      "short": "",
      "full": "Вие имате чудесен вкус. Умеете да разграничавате красивото от грозното, да бъдете винаги модни и едновремено с това и да изглеждате добре. Имате усет за делничното и празничното, като подходящо го подчертавате чрез тоалета и аксесоара.",
      "image": ""
    }
  ]
}