{
  "_id": "4d5fee95017ea",
  "promoted":true, "type":"bg", "hrev2": "1-fb1c50d8852a0bc33c144a3a1752b711",
  "questions": [
    {
      "1": "",
      "2": "",
      "3": "",
      "question": ""
    },
    {
      "1": "Дори и да не е модерно аз пак ще бъда къдрева!!! :)",
      "2": "Всичко за модата-ако трябва ще се жертвам!!",
      "3": "НИКОГААА!!!!!",
      "question": "Вече е модерно да си с къдрева коса ,но ти мразиш този стил.Как ще постъпиш??"
    },
    {
      "1": "НИКОГА!",
      "2": "Не съм сигурна .....май често !!! :)",
      "3": "Постоянно съм с изправена коса 24 чеаса!!!!!!!!!!!! :))))))))))))",
      "question": "Колко чести си изправяш косата??"
    },
    {
      "1": "Естествено че къдрева!!!!!",
      "2": "Средно положение",
      "3": "Само права и нищо друго!!!!! :)))",
      "question": "Кое най-много ти допада-къдрева или права"
    }
  ],
  "appname": "ПрАвА ,КъДреВа иЛи ЧуПлИвА!.......!!!!!!!!",
  "description": "как най-много ти отива??",
  "quiz": "1",
  "slug": "quizimage",
  "share": "Сподели във Фейсбук",
  "image": "",
  "results": [
    {
      "short": "Къдрева",
      "full": "ПОдчертава лъчезарната ти осмивка......забавна и сладка..така изглеждаш когато си къдрева!! :)",
      "image": ""
    },
    {
      "short": "Чуплива",
      "full": "Нито скромна нито надута...идеалната прическа за теб!!!!!!!! :)",
      "image": ""
    },
    {
      "short": "Права",
      "full": "Най-много ти отива ,защото излъчваш едновременно изискана и забавна жена!! :)",
      "image": ""
    }
  ]
}