{
  "_id": "4dec90ec05ed5",
  "promoted":true, "type":"bg", "hrev2": "1-880034a7604a99732606d60a78236c5c",
  "questions": [
    {
      "1": "",
      "2": "",
      "3": "",
      "question": ""
    },
    {
      "1": "веднага се съгласявам",
      "2": "казвам \"добре,но не много\"",
      "3": "казвам \"мразя тичането\"",
      "question": "Какво правиш ако някой те покани да тичате заедно?"
    },
    {
      "1": "включвам се заради любовта към спорта",
      "2": "включвам се от интерес и заради приятелите си",
      "3": "ще седя отстрани и ще гледам",
      "question": "Има спортно състезание и всичките ви приятели се включват.Какво ще направите?"
    },
    {
      "1": "6",
      "2": "4-5",
      "3": "2",
      "question": "Когато имаш/е физическо в училище как те оценяваха?"
    },
    {
      "1": "всеки ден",
      "2": "през ден",
      "3": "по 2 минути",
      "question": "Колко пъти на седмица гледаш спорт и спортуваш?"
    }
  ],
  "appname": "спортист ли си?",
  "description": "колко обичаш спорта",
  "quiz": "1",
  "slug": "quizimage",
  "share": "Сподели във Фейсбук",
  "image": "",
  "results": [
    {
      "short": "истинска спортна звезда",
      "full": "ти обожаваш спорта.ти се занимаваш с него почти през цялото си време.но се опитай да спреш малко,защото скоро няма да имаш с какво да бягаш.\r\n",
      "image": ""
    },
    {
      "short": "любител спортист",
      "full": "ти се занимаваш със спорта умерено.точно така трябва да се прави (ако не си PRO).продължавай в същия дух.",
      "image": ""
    },
    {
      "short": "враг на спорта",
      "full": "ти мразиш спорта.ако някой поиска да бягате заедно,ти ще откажеш.ако някога спортуваш,то това е когато ходиш до училище или работа.",
      "image": ""
    }
  ]
}