{
  "_id": "4e49129206b1e",
  "promoted":true, "type":"bg", "hrev2": "1-6ae15c1a8135f8ebae6bb15c5e7c6921",
  "questions": [
    {
      "1": "",
      "2": "",
      "3": "",
      "4": "",
      "question": ""
    },
    {
      "1": "Зелени",
      "2": "Сини",
      "3": "Кафяви",
      "4": "Черни",
      "question": "Какви очи имаш ?"
    },
    {
      "1": "Руса с малко светло кафяви кичури",
      "2": "Кафява",
      "3": "Червена(тъмно)",
      "4": "руса",
      "question": "Какъв цвят коса имате ?"
    },
    {
      "1": "певица",
      "2": "актриса",
      "3": "актриса и певица",
      "4": "нито едно от изброените",
      "question": "Каква предпочитате да сте :"
    },
    {
      "1": "Да се обличате модерно и да впечетлявате момчетата",
      "2": "Да ходите по центъра и по магазините ",
      "3": "Да гледате телевизор",
      "4": "Да слушате музика",
      "question": "Какво обичате да правите най-много ?"
    }
  ],
  "appname": "На коя актриса приличаш най-много?",
  "description": "Ще видите на коя актриса приличате като решите този тест !:)",
  "quiz": "1",
  "slug": "quizimage",
  "share": "Сподели във Фейсбук",
  "image": "",
  "results": [
    {
      "short": "Ти приличаш на  Дженифър Лопез",
      "full": "Ти наистина приличаш на Дженифър Лопез ! ",
      "image": ""
    },
    {
      "short": "Ти приличаш наАнджелина Джоли",
      "full": "Вие с Анджелина Джоли сте направо близначки !",
      "image": ""
    },
    {
      "short": "Ти приличаш на Dulce Maria !",
      "full": "Браво испанке ! Ти приличаш много на Dulce Maria !",
      "image": ""
    },
    {
      "short": "Ти приличаш много на Hanah Montana !",
      "full": "хей Hanah Montana !! :)",
      "image": ""
    }
  ]
}