{
  "_id": "4e579c7382510",
  "promoted":true, "type":"bg", "hrev2": "1-10b637b1087f7acd31b106bdc660baa3",
  "questions": [
    {
      "1": "",
      "2": "",
      "question": ""
    },
    {
      "1": "Да ",
      "2": "Не ",
      "question": "Бярваш ли в Бог?"
    },
    {
      "1": "Да",
      "2": "Не",
      "question": "Ходиш ли на църква?"
    },
    {
      "1": "Да помагам на хората и да правя добри неща и да служа на Бог?",
      "2": "Просто да имам много пари да съм известен, да не изпълнявам законите, за да  съм лош човек?",
      "question": "За какво си на тази Земя?"
    },
    {
      "1": "Да ",
      "2": "Не",
      "question": "Ходиш ли на Църква,където не се палят свещи?"
    },
    {
      "1": "Да ",
      "2": "Не,много",
      "question": "Обичаш ли Бог ?"
    },
    {
      "1": "Защото знам,че той е умрял за мен на кръста, и той мен ме обича",
      "2": "Аз не знам кой е Бог",
      "question": "Защо обичаш Бог?"
    },
    {
      "1": "Да ",
      "2": "Не,",
      "question": "Знаеш ли, че Бог вижда всичко каквото правиш?"
    }
  ],
  "appname": "Обичаш ли Бог?",
  "description": "Бог те е сусдал и трябва да го почиташ!",
  "quiz": "1",
  "slug": "quizimage",
  "share": "Сподели във Фейсбук",
  "image": "",
  "results": [
    {
      "short": "Да",
      "full": "Да ти обичаш Бог ти се молиш и си наистина добър християнин и го обичаш.\r\nТи ходиш на църква и четеш Библията.\r\n",
      "image": ""
    },
    {
      "short": "Не ",
      "full": "Не. Ти не си вярващ в Бог.Бог те е съсдал за да слуйиш за него и да живееш за него да правиш добри неща и да помагаш на хората.\r\nПомисли си добре да ли не е така.\r\n",
      "image": ""
    }
  ]
}