{
  "_id": "4c77d8096f632",
  "promoted":true, "type":"bg", "hrev2": "1-28866ffd33fa64430b1626ebfe96cab5",      
  "questions": [
    {
      "1": "1",
      "2": "3",
      "3": "15",
      "4": "22",
      "5": "34",
      "6": "68",
      "question": "Вижте тези числа, сега бързо, без да мислите – изберете едно от тях. "
    }
  ],
  "appname": "Избери число! (Гадание на екс)",
  "description": "Изберете едно от изброените числа и вижте какво ви очаква :)",
  "quiz": "14",
  "image": "By4R8Z1Qx",
  "slug": "quizimage",
  "share": "Сподели във Фейсбук",
  "results": [
    {
      "short": "Ако сте избрали 1:",
      "full": "Предстои ви много важна крачка в живота. Ако е за любов – ще стане лесно, но ако става въпрос за нова работа, сега не е най-подходящият момент.",
      "image": "rJZbD-1ml"
    },
    {
      "short": "Ако сте избрали 3:",
      "full": "Това е златната среда! Не променяйте нищо. Очаквайте добра вест. Ще срещнете подходящия човек на подходящото място.",
      "image": "rJZbD-1ml"
    },
    {
      "short": "Ако сте избрали 15:",
      "full": "Ако рутината ви е погълнала, сега е моментът за смелост. Ще проявихе храброст да защитите някого. Ще спечелите пари.",
      "image": "rJZbD-1ml"
    },
    {
      "short": "Ако сте избрали 22:",
      "full": "Знаете, че 2 и 2 е 4, но сега сякаш не можете да „пресметнете” правилно ситуацията. Ще имате успех, само ако ви помогне близък човек. Не разчитайте на колеги.",
      "image": "rJZbD-1ml"
    },
    {
      "short": "Ако сте избрали 34:",
      "full": "След три, следва четири. Вие стъпвате смело, крачка по крачка и сте близо до желания успех. Уверени сте, само ви липсва малко време, за да реализирате замисленото.",
      "image": "rJZbD-1ml"
    },
    {
      "short": "Ако сте избрали 68:",
      "full": "В любовта ви липсва нещо малко, но това ви прави нервни. Ще кажете нещо, за което по-късно ще съжалявате. Ако можете, спрете се навреме!",
      "image": "rJZbD-1ml"
    }
  ]
}