{
  "_id": "4cb0aa52b204b",
  "promoted":true, "type":"bg", "hrev2": "1-d143bb508701a65f49137ebc2be0f25b",  
  "questions": [
    {
      "1": "1",
      "2": "2",
      "3": "3",
      "4": "4",
      "5": "5",
      "6": "6",
      "7": "7",
      "8": "8",
      "9": "9",
      "10": "10",
      "11": "11",
      "12": "12",
      "13": "13",
      "14": "14",
      "15": "15",
      "16": "16",
      "17": "17",
      "18": "18",
      "19": "19",
      "20": "20",
      "21": "21",
      "22": "22",
      "23": "23",
      "24": "24",
      "25": "25",
      "26": "26",
      "27": "27",
      "28": "28",
      "29": "29",
      "30": "30",
      "31": "31",
      "32": "32",
      "33": "33",
      "34": "34",
      "35": "35",
      "36": "36",
      "37": "37",
      "38": "38",
      "39": "39",
      "40": "40",
      "question": "Избери число"
    }
  ],
  "appname": "Как ще се казваш в следващия си живот? :)  ( за момичета )",
  "description": "Тук ще разбереш как ще се казваш в следващия си живот. :)  ( това е игра само за забавление )",
  "quiz": "14",
  "image": "BkY5tLg7e",
  "slug": "quizimage",
  "share": "Сподели във Фейсбук",
  "results": [
    {
      "short": "Адриана :)",
      "full": ";р",
      "image": "B1LaKUe7x"
    },
    {
      "short": "Ана :)",
      "full": ";р",
      "image": "B1LaKUe7x"
    },
    {
      "short": "Бети :)",
      "full": ";р",
      "image": "B1LaKUe7x"
    },
    {
      "short": "Валентина :)",
      "full": ";р",
      "image": "B1LaKUe7x"
    },
    {
      "short": "Вероника :)",
      "full": ";р",
      "image": "B1LaKUe7x"
    },
    {
      "short": "Виктория :)",
      "full": ";р",
      "image": "B1LaKUe7x"
    },
    {
      "short": "Симона :)",
      "full": ";р",
      "image": "B1LaKUe7x"
    },
    {
      "short": "Алехандра :)",
      "full": ";р",
      "image": "B1LaKUe7x"
    },
    {
      "short": "Габриела :)",
      "full": ";р",
      "image": "B1LaKUe7x"
    },
    {
      "short": "Гергана :)",
      "full": ";р",
      "image": "B1LaKUe7x"
    },
    {
      "short": "Валерия :)",
      "full": ";р",
      "image": "B1LaKUe7x"
    },
    {
      "short": "Даниела :)",
      "full": ";р",
      "image": "B1LaKUe7x"
    },
    {
      "short": "Дебора :)",
      "full": ";р",
      "image": "B1LaKUe7x"
    },
    {
      "short": "Диана :)",
      "full": ";р",
      "image": "B1LaKUe7x"
    },
    {
      "short": "Елена :)",
      "full": ";р",
      "image": "B1LaKUe7x"
    },
    {
      "short": "Елизабет :)",
      "full": ";р",
      "image": "B1LaKUe7x"
    },
    {
      "short": "Ема :)",
      "full": ";р",
      "image": "B1LaKUe7x"
    },
    {
      "short": "Жаклин :)",
      "full": ";р",
      "image": "B1LaKUe7x"
    },
    {
      "short": "Ивона :)",
      "full": ";р",
      "image": "B1LaKUe7x"
    },
    {
      "short": "Карина :)",
      "full": ";р",
      "image": "B1LaKUe7x"
    },
    {
      "short": "Каролина :)",
      "full": ";р",
      "image": "B1LaKUe7x"
    },
    {
      "short": "Кати :)",
      "full": ";р",
      "image": "B1LaKUe7x"
    },
    {
      "short": "Лили :)",
      "full": ";р",
      "image": "B1LaKUe7x"
    },
    {
      "short": "Марина :)",
      "full": ";р",
      "image": "B1LaKUe7x"
    },
    {
      "short": "Маргарита :)",
      "full": ";р",
      "image": "B1LaKUe7x"
    },
    {
      "short": "Мая :)",
      "full": ";р",
      "image": "B1LaKUe7x"
    },
    {
      "short": "Наталия :)",
      "full": ";р",
      "image": "B1LaKUe7x"
    },
    {
      "short": "Нора :)",
      "full": ";р",
      "image": "B1LaKUe7x"
    },
    {
      "short": "Паола :)",
      "full": ";р",
      "image": "B1LaKUe7x"
    },
    {
      "short": "Ралица :)",
      "full": ";р",
      "image": "B1LaKUe7x"
    },
    {
      "short": "Ребека :)",
      "full": ";р",
      "image": "B1LaKUe7x"
    },
    {
      "short": "Сабрина :)",
      "full": ";р",
      "image": "B1LaKUe7x"
    },
    {
      "short": "Силвия :)",
      "full": ";р",
      "image": "B1LaKUe7x"
    },
    {
      "short": "Илияна :)",
      "full": ";р",
      "image": "B1LaKUe7x"
    },
    {
      "short": "Шанел :)",
      "full": ";р",
      "image": "B1LaKUe7x"
    },
    {
      "short": "Наз :)",
      "full": ";р",
      "image": "B1LaKUe7x"
    },
    {
      "short": "Инджи :)",
      "full": ";р",
      "image": "B1LaKUe7x"
    },
    {
      "short": "Бахар :)",
      "full": ";р",
      "image": "B1LaKUe7x"
    },
    {
      "short": "Бела :)",
      "full": ";р",
      "image": "B1LaKUe7x"
    },
    {
      "short": "Мелиса :)",
      "full": ";р",
      "image": "B1LaKUe7x"
    }
  ]
}