{
  "_id": "4c70f02f08117",
  "promoted":true, "type":"bg", "hrev2": "1-e5c54b017d478e165e51ed65417d1439",
  "questions": [
 
    {
      "1": "Синьо",
      "2": "Черно",
      "3": "Бяло",
      "4": "Розово",
      "question": "Любим цвят?"
    },
    {
      "1": "И двете",
      "2": "Тото",
      "3": "Нито едно",
      "4": "Лотария",
      "question": "Тото или лотария играете ?"
    },
    {
      "1": "Рядко ",
      "2": "Всеки ден",
      "3": "Никога не съм пил и няма да пия",
      "4": "Не съм се замислял",
      "question": "Колко често пиеш алкохол?"
    },
    {
      "1": "Не",
      "2": "Незнам",
      "3": "Да",
      "4": "Какъв е този въпрос?",
      "question": "Харесваш ли живота си какъвто е?"
    },
    {
      "1": "Бентли",
      "2": "БМВ",
      "3": "Мерцедес",
      "4": "Ауди",
      "question": "Коя марка кола предпочиташ?"
    }
  ],
  "appname": "Следващото щастие, което ще ви сполети.",
  "description": "Ще видим кое е следващото щастие, което ще те сполети :))",
  "quiz": "14",
  "image": "S1JNXW1me",
  "slug": "quizimage",
  "share": "Сподели във Фейсбук",
  "results": [
    {
      "short": "Лотария",
      "full": "От тото да спечелиш ще има да чакаш, но от лотарията ще изкараш нещичко (дори и малко) ",
      "image": "S1JNXW1me"
    },
    {
      "short": "Нова любов",
      "full": "В скоро време ще имаш нова любов в ден, в който не очакваш. Сложи хубав грим и дрешки и се дръж да не припаднеш :) ",
      "image": "S1JNXW1me"
    },
    {
      "short": "Сполука",
      "full": "Предвещавам, че живота ти ще се нагласи така, както искаш, но все пак това е Quiz, питай някой ясновидец за всеки случай :) ",
      "image": "S1JNXW1me"
    },
    {
      "short": "Нова кола",
      "full": "Ще спечелиш кола или ще можеш да си я позволиш, това е сигурно, само трябва да чакаш :)",
      "image": "S1JNXW1me"
    }
  ]
}