{
  "_id": "4cb48fb75e317",
  "promoted":true, "type":"bg", "hrev2": "1-fd8403f0b822c68c639ef3fe9737b416",
  "questions": [
  
    {
      "1": "Черно,бяло,сиво!",
      "2": "Червено,жълто,синьо!",
      "3": "Червено,синьо,оранжево!",
      "question": "Кои са 3-те основни цвята в рисуването?"
    },
    {
      "1": "Да се рисува с много малко вода!",
      "2": "Да се използва много вода!",
      "3": "Да се очертава много,много внимателно!",
      "question": "Какво е правилото,когато се използват акварелни бои!"
    },
    {
      "1": "Охра,черно,пепел от рози!",
      "2": "Оранжево,зелено,виолетово!",
      "3": "Жълто,лилаво,розаво!",
      "question": "Опа,пропуснах нещо!Кои са допълнителните цветове в рисуването!"
    },
    {
      "1": "На платно!",
      "2": "На картон!",
      "3": "На обикновен тънък лист!",
      "question": "На какво се рисува със сухи пастели?"
    },
    {
      "1": "Светлите цветове!",
      "2": "Цветните цветове!",
      "3": "Тъмните цветове!",
      "question": "Кои са хроматичните цветове?"
    },
    {
      "1": "Всички цветове от синята гама!",
      "2": "Безцветните ветове-черно,сиво,бяло!",
      "3": "Червено,черно,сиво!",
      "question": "Кои са ахроматичните цветове?"
    },
    {
      "1": "Жълто!",
      "2": "Вода!",
      "3": "Бяло!",
      "question": "Какво се използва да се изсветли един цвят?"
    },
    {
      "1": "Ван Гог!",
      "2": "Леонардо Давинчи!",
      "3": "Георги Иванов!",
      "question": "Кой е нарисувал великата картина \"Мона Лиза\"?"
    },
    {
      "1": "Лош!",
      "2": "Добър!",
      "3": "Среден!",
      "question": "Какъв ще е резултатът според теб?"
    }
  ],
  "appname": "Можеш ли да рисуваш?",
  "description": "Сега ще разбереш!",
  "quiz": "14",
  "image": "Sy0TADZ7e",
  "slug": "quizimage",
  "share": "Сподели във Фейсбук",
  "results": [
    {
      "short": "Нямаш успехи в рисуването!",
      "full": "Много съжалявам,но твоят резултат е отрицателен!",
      "image": "B1Tzyu-me"
    },
    {
      "short": "Браво,ще станеш художник!",
      "full": "Браво,след време е възможно да развиеш таланта си !",
      "image": "B1Tzyu-me"
    },
    {
      "short": "Ами,средна работа,може би уроци по рисуване!",
      "full": "Ако искаш да станеш художник ще трябва да се потрудиш малко,тоест уроци по рисуване!",
      "image": "B1Tzyu-me"
    }
  ]
}