{
    "use_profile": false,
    "result_count": 54138,
    "choices": [],
    "coupon_promoted": "",
    "hide_comments": "N",
    "badge_promoted": false,
    "hide_ads": "N",
    "banner_promoted": false,
    "image": "r1FkgH0A",
    "quotes": [],
    "quiz": {
        "title": "Today's quote for you!",
        "time_limit": 0,
        "feedback": "N",
        "extra": {},
        "updated_at": "2015-08-26T09:13:25",
        "thumbnail_path": "/api/i/227/0/thumbnail",
        "id": 227,
        "special": "",
        "type2": "X",
        "title": "Today's quote for you!",
        "bg_image_url": "//arpecop.herokuapp.com/mysticbox/assets/tumblr_o3recwFcvL1uip6ezo6_500.jpg",
        "temp_flag": "",
        "desc": "Get inspired by today's quotes!",
        "type": "C",
        "bg_color": "",
        "sns": "recommend",
        "hashtag": "quote",
        "open_at": "2015-08-26T09:13:25",
        "created_at": "2015-08-24T04:40:48",
        "enabled": "Y",
        "extra_json": null
    },
    "share": "Share on facebook"
}