{
    "use_profile": false,
    "result_count": 54832,
    "choices": [{
        "next_step": "D",
        "weight": 0,
        "text": "",
        "number": 1,
        "correct": "N",
        "image_url": "",
        "type": "F",
        "id": 2404,
        "next_question_id": null,
        "question_id": 923
    }, {
        "next_step": "D",
        "weight": 0,
        "text": "Male",
        "number": 1,
        "correct": "N",
        "image_url": "",
        "type": "T",
        "id": 2403,
        "next_question_id": null,
        "question_id": 922
    }, {
        "next_step": "D",
        "weight": 0,
        "text": "Female",
        "number": 2,
        "correct": "N",
        "image_url": "",
        "type": "T",
        "id": 2402,
        "next_question_id": null,
        "question_id": 922
    }],
    "questions": [{
        "choiceMappings": {
            "2404": 0
        },
        "extra": {
            "sample-input": "Vonvon English"
        },
        "text": "Select a FB profile",
        "choiceIds": [2404],
        "number": 1,
        "image_url": "",
        "extra_json": "{\"sample-input\": \"Vonvon English\"}",
        "quiz_id": 280,
        "type": "F",
        "id": 923
    }, {
        "choiceMappings": {
            "2402": 0,
            "2403": 0
        },
        "extra": {},
        "text": "What is the person's gender?",
        "choiceIds": [2402, 2403],
        "number": 2,
        "image_url": "",
        "extra_json": "{}",
        "quiz_id": 280,
        "type": "T",
        "id": 922
    }],
    "quotes": {
        "female": [
            "female-adele-300.jpg", "female-alicia-keys300.jpg", "female-ali-larter1_300.jpg",
            "female-amanda-bynes300.jpg", "female-amanda-seyfried-300.jpg",
            "female-america-ferrera300.jpg", "female-amy-adams300.jpg",
            "female-anna-nicole300.jpg", "female-anne-hathaway300.jpg",
            "female-ashlee-simpson300.jpg", "female-ashley-greene-300.jpg",
            "female-ashley-olsen300.jpg", "female-ashley-tisdale300.jpg",
            "female-audrina-patridge300.jpg", "female-avril-lavigne300.jpg",
            "female-beyonce-knowles.jpg", "female-brooke-shields300.jpg",
            "female-cameron-diaz.jpg", "female-carmen_electra.jpg", "female-cate-blanchett.jpg",
            "female-catherine-jones.jpg", "female-celine-dion.jpg", "female-charlize-theron.jpg",
            "female-cheryl-burke.jpg", "female-christina-aguilera.jpg",
            "female-christina-applegate300.jpg", "female-claire-danes300a.jpg",
            "female-courtney-cox300.jpg", "female-demi-lovato300.jpg", "female-demi-moore.jpg",
            "female-denise-richards.jpg", "female-drew-barrymore.jpg",
            "female-ed-westwick300.jpg", "female-elin-nordegren-300.jpg",
            "female-elisebeth-hasselback300.jpg", "female-emily-blunt300.jpg",
            "female-emma-stone-300.jpg", "female-emma-watson-300.jpg", "female-eva-longoria.jpg",
            "female-eva-mendes.jpg", "female-evangeline-lilly300.jpg",
            "female-evan-rachelwood300.jpg", "female-gisele-bundchen300.jpg",
            "female-gwen-stefani.jpg", "female-heidi-montag.jpg", "female-hilary-duff.jpg",
            "female-january-jones-300.jpg", "female-jennifer-aniston.jpg",
            "female-jennifer-lawrence-300.jpg", "female-jennifer-lopez.jpg",
            "female-jessica-alba.jpg", "female-jessica-biel.jpg", "female-jessica-simpson.jpg",
            "female-jessica-szohr-300.jpg", "female-julianne-hough.jpg",
            "female-julia-roberts.jpg", "female-kate-beckinsale.jpg", "female-kate-hudson.jpg",
            "female-kate-moss.jpg", "female-Katharine-McPhee.jpg", "female-katherine-heig.jpg",
            "female-katie-holmes-300.jpg", "female-keira-knightley.jpg",
            "female-kevin-federline300.jpg", "female-kim-kardashian300b.jpg",
            "female-kristen-stewart300.jpg", "female-kristin-cavallari.jpg",
            "female-lauren-conrad300.jpg", "female-leighton-meester300.jpg",
            "female-lindsay-lohan.jpg", "female-mandy-moore.jpg", "female-megan-fox.jpg",
            "female-mila-kunis-300.jpg", "female-mischa-barton.jpg",
            "female-natalie-portman300.jpg", "female-penelope-cruz300.jpg", "female-pink300.jpg",
            "female-rachel-bilson300.jpg", "female-salma-hayek.jpg", "female-sandra-bullock.jpg",
            "female-scarett-johansson.jpg", "female-selena-gomez.jpg", "female-shakira.jpg",
            "female-shania-twain300.jpg", "female-sheryl-crow300.jpg", "female-sienna-miller.jpg",
            "female-taylor-momsen300.jpg"
        ],
        "male": ["male-adam-levine-300.jpg",
            "male-alexander-skarsgard-300.jpg", "male-andrew-garfield-300.jpg",
            "male-ashton-kutcher300.jpg", "male-ben-affleck-300.jpg", "male-bradley-cooper.jpg",
            "male-brad-pitt.jpg", "male-brody-jenner300.jpg", "male-bruce-willis300.jpg",
            "male-chace-crawford300.jpg", "male-channing-tatum.jpg", "male-charlie-sheen-300.jpg",
            "male-chris-hemsworth.jpg", "male-chris-pine-300.jpg", "male-christian-bale-300.jpg",
            "male-clay-aiken.jpg", "male-colin-farrell300.jpg", "male-cory-monteith.jpg",
            "male-daniel-radcliffe300.jpg", "male-david-archuleta.jpg", "male-david-beckham.jpg",
            "male-david-cook.jpg", "male-ed-westwick300.jpg", "male-george-clooney.jpg",
            "male-gerard-butler300.jpg", "male-heath-ledger.jpg", "male-hugh-jackman.jpg",
            "male-jake-gyllenhaal.jpg", "male-james-franco300.jpg", "male-john-krasinski300.jpg",
            "male-john-mayer300.jpg", "male-johnny-depp.jpg", "male-jon-hamm-300.jpg",
            "male-josh-duhamel.jpg", "male-jude-law300.jpg", "male-justin-timberlake.jpg",
            "male-keanu-reeves300.jpg", "male-keith-urban.jpg", "male-kellan-lutz-300.jpg",
            "male-kelly-clarkson.jpg", "male-kenny-chesney300.jpg", "male-kris-allen-300.jpg",
            "male-leo-dicaprio.jpg", "male-liam-hemsworth-300.jpg", "male-mario-lopez-300.jpg",
            "male-mark-ballas300.jpg", "male-mark-wahlberg-300.jpg", "male-matt-damon300.jpg",
            "male-matthew-mcconaughey.jpg", "male-milo-ventimiglia300.jpg",
            "male-nick-lachey300.jpg", "male-orlando-bloom300.jpg", "male-patrick-dempsey.jpg",
            "male-penn-badgley300.jpg", "male-prince-harry300.jpg", "male-prince-william300.jpg",
            "male-robert-pattinson300.jpg", "male-ryan-gosling-300.jpg",
            "male-ryan-phillippe300.jpg", "male-ryan-reynoldsa300.jpg",
            "male-shia-labeouf300.jpg", "male-taylor-hicks.jpg", "male-taylor-lautner300.jpg",
            "male-tim-mcgraw.jpg", "male-tom-brady300.jpg", "male-tom-cruise.jpg"
        ]
    },
    "coupon_promoted": "",
    "hide_comments": "N",
    "badge_promoted": false,
    "hide_ads": "N",
    "image": "r1Z-oZPGl",
    "banner_promoted": false,
    "quiz": {
        "time_limit": 0,
        "feedback": "N",
        "extra": {},
        "updated_at": "2015-09-24T10:46:01",
        "thumbnail_path": "/api/i/280/0/thumbnail",
        "id": 280,
        "special": "snsfriend_all_1",
        "type2": "X",
        "title": "Celebrity look-alike finder",
        "bg_image_url": "http://lh3.googleusercontent.com/VCrgdjqwGFP_WIVaRTUA2EQNaPvhl2JYkgZBYvwysRF4dD0UbOF3CJYq-LTZfHGZDx5KLsY6zC_-oXgSGqsQPw=s0",
        "temp_flag": "",
        "desc": "Select a FB Profile (of yourself or your friend!) and we will analyze the profile picture to find the best celeb look-alike!",
        "type": "B",
        "bg_color": "",
        "sns": "facebook",
        "hashtag": "lookalike",
        "open_at": "2015-09-24T10:46:01",
        "image2_url": "",
        "created_at": "2015-09-23T12:33:18",
        "enabled": "Y",
        "thumbnail_url": "http://lh3.googleusercontent.com/N_vmXRyeRYJhd_PkeJU3GlPTQUV5XssTe3baJ1Hkbxz91QH9kf1A1yvi96A39myO4ij3kS9NN5k2MKoYKr4m=s0",
        "image_url": "http://lh3.googleusercontent.com/wCwx_k4SstfYW-aUL7jtfmduXNYRQCkQtW2Y6fAUoVqoUM600MphlKuaSGeUtD58v5AKCm7dCBHjQEqZDAY=s0"
    },
    "share": "Share in Facebook",
    "perms": "user_friends"
}