{

    "use_profile": false,
    "result_count": 54138,
    "coupon_promoted": "",
    "hide_comments": "N",
    "badge_promoted": false,
    "hide_ads": "N",
    "banner_promoted": false,
    "perms": "user_birthday",
    "image": "SJC8uNJMg",
    "promoted":true,
    "quiz": {
        "time_limit": 0,
        "feedback": "N",
        "extra": {},
        "updated_at": "2015-08-26T09:13:25",
        "thumbnail_path": "/api/i/227/0/thumbnail",
        "id": 227,
        "special": "",
        "type2": "X",
        "title": "На колко изглеждаш?!",
        "temp_flag": "",
        "desc": "Достоверен скенер който определя възраста на която изглеждаш според снимките.",
        "type": "C",
        "bg_color": "",
        "sns": "recommend",
        "hashtag": "quote",
        "open_at": "2015-08-26T09:13:25",
        "image2_url": "",
        "created_at": "2015-08-24T04:40:48",
        "enabled": "Y",
        "thumbnail_url": "tumblr_o3recwFcvL1uip6ezo6_500.jpg",
        "image_url": "BJeyRPzWx.jpg",
        "extra_json": null
    },
    "izglejdana":"изглежда на",
    "quotes": [
        "нула",
        "една",
        "две",
        "три",
        "четири",
        "пет",
        "шест",
        "седем",
        "осем",
        "девет",
        "десет",
        "единадесет",
        "дванадасет",
        "тринадесет",
        "четиринадесет",
        "петнадесет",
        "шестнадесет",
        "седемнадесет",
        "осемнадесет",
        "деветнадесет",
        "двадесет",
        "двадесет и една",
        "двадесет и две",
        "двадесет и три",
        "двадесет и четири",
        "двадесет и пет",
        "двадесет и шест",
        "двадесет и седем",
        "двадесет и осем",
        "двадесет и девет",
        "тридесет",
        "тридесет и една",
        "тридесет и две",
        "тридесет и три",
        "тридесет и четири",
        "тридесет и пет",
        "тридесет и шест",
        "тридесет и седем",
        "тридесет и осем",
        "тридесет и девет",
        "четирдесет",
        "четирдесет и една",
        "четирдесет и две",
        "четирдесет и три",
        "четирдесет и четири",
        "четирдесет и пет",
        "четирдесет и шест",
        "четирдесет и седем",
        "четирдесет и осем",
        "четирдесет и девет",
        "петдесет",
        "петдесет и една",
        "петдесет и две",
        "петдесет и три",
        "петдесет и четири",
        "петдесет и пет",
        "петдесет и шест",
        "петдесет и седем",
        "петдесет и осем",
        "петдесет и девет",
        "шестдесет",
        "шестдесет и една",
        "шестдесет и две",
        "шестдесет и три",
        "шестдесет и четири",
        "шестдесет и пет",
        "шестдесет и шест",
        "шестдесет и седем",
        "шестдесет и осем"
    ],
    "share": "Сподели във Фейсбук"
}